^C:\USERS\HYPERPC\SOURCE\REPOS\SNAKE\DEBUG\SNAKE.OBJ
C:\USERS\HYPERPC\SOURCE\REPOS\SNAKE\DEBUG\SNAKE.EXE
C:\USERS\HYPERPC\SOURCE\REPOS\SNAKE\DEBUG\SNAKE.ILK
C:\USERS\HYPERPC\SOURCE\REPOS\SNAKE\DEBUG\SNAKE.PDB
